{
  "type": "service_account",
  "project_id": "smart-portfolio-441916-n8",
  "private_key_id": "5aed29532fd8b1f176daa41542743f16098297de",
  "private_key": "-----BEGIN PRIVATE KEY-----\nMIIEvQIBADANBgkqhkiG9w0BAQEFAASCBKcwggSjAgEAAoIBAQCmB9PyXmvdIGxO\n+hHxAlK4JIO194XJjUHZHzazjaUIDFcUQPTSdgxbHrR3q7Jol+ktZqk/KMdUBnmT\nKlaf5g4B3YbFOpDFpsQQveWxYR/sYWl/CnUk4C+1QXkWzCs0ocAxis/eF6Ah0loF\nA8flUjg+KC43Py5M+kWcIAtPsmp2hCSb9fL51tm+XxLQeEPpFfQyB7sEYO0KcHQB\ngqrhExK4craJ3w5btwobdRwfBGwtUUsCiK+C+0V0GoNZmV8oss5oFyqRzvIHXJ5N\nV2Vm5nVDhvNpeESj0KJmFgcUbRYt0j61FM73EbGfvcst6rvw6e/CNqgRhsoCBzu/\nTMRM6NHvAgMBAAECggEABeofHCCUDjHpOF9i6YGl89DSo5wFcXBe3ySSso7zpiwF\nRnni/s+dNIXHZ9fztBNtTSpJV+pgPrR+KYDBm/WF+U84HwZb5EdaHfkbpVfnxAsh\nDN8Q8/n6WRqN5dRH8QM5vOFYCiiNHeRqt/ymlYPukvvp0Brtz5dKcYdGtD4yZZ6O\nYSaZSV+7uSNSaN/2VV/sc8b2AMB37C6eInCx771vj7GiU3mOuv63zLe94fgLyyec\nBOP0KSKpNI1vGARfD6BkpW0JE9KTcocPBlysEHqypp6Y9FeBiokW97Drtym+U/7O\nTmon3PupksChRP41Wje8zBRxYpwVPIFclBb5EiMcQQKBgQDf3Ld42sWPDX6B5l6u\naxTMWLwpVGZ0lbrGFiGaYvlEaBe0dtMb1LRiR6BNzQB8s+c3hF+vg764nj4KFXeB\nFXqbIi7gqkdDo1GGg1WFG2zPDk8UW1W2bVb1Y7dQrOd1uWXDcXUMpigiZGCNj4Me\nc8qWVripLuedmhL9oMAyyU+PjwKBgQC93bXFfvEnG5CPGTrbEzG2CCbHmTLZFCA3\nqs/sFwQZ+GHiV8MV2EitNmZb/nKXaSviQO1Ihxilca2KhZ0rM4cAPpNaIPJLUBnL\nrwGPbI6CSWCMqZ9S2JfLkRIcM/wMTWHug+Zddbzt9N/5gXlFdd2TZYPBmnVnDkgy\notHmwJNnoQKBgBOhdElZzec8hLJ5dCYRZ9J/mYh6ST3B/43tVOcH9Nnl0uZVYS/Y\nmDTiGRGZf4hv8j+xEP8AK5Je9gvGVCNysby246t54yPwR27nR3GTtRf3JkIfvEVy\nEyUTqHifoPB24JCh+2SvkWdqq/jd896QwtwqIKldXpw4bZ/mH9SUSLDLAoGAcy3l\nkFqy1oOdTYIDt1TMil4lkF46f3/7D2oa2mEYBt0sHFAbM8xSQmnG7LXONFYD3ix/\nBcmWxP7SRT9LGiMXGancYAeulMuR6oNPEf/L7/Otk4du9KYaZ86oyt0qYRgsebIg\ndL/xDfXITacit2WKNlmV9UPLRupeGAG4DiDzCyECgYEAwcgqxmgjB2xPZrpecAuT\nHOp89SOcE3axnVPSYz0AvXUaPQeecYX6HZofHwQB1qWAVJKGqeYqO0QjcsOQeNsJ\nr43pg+JehwqTQilqlBKnDgEnivMzGtsdUot3TCJPV4hYvj755PVJkG5klyFRS/g5\nfNGBYqiaME1Q4C0otH0ggoM=\n-----END PRIVATE KEY-----\n",
  "client_email": "gcp000@smart-portfolio-441916-n8.iam.gserviceaccount.com",
  "client_id": "101970243176561309633",
  "auth_uri": "https://accounts.google.com/o/oauth2/auth",
  "token_uri": "https://oauth2.googleapis.com/token",
  "auth_provider_x509_cert_url": "https://www.googleapis.com/oauth2/v1/certs",
  "client_x509_cert_url": "https://www.googleapis.com/robot/v1/metadata/x509/gcp000%40smart-portfolio-441916-n8.iam.gserviceaccount.com",
  "universe_domain": "googleapis.com"
}
